\relax 
\bibstyle{plain}
\@writefile{toc}{\contentsline {section}{\numberline {1}Introduction}{2}}
\@writefile{lof}{\contentsline {figure}{\numberline {1}{\ignorespaces Sorted Array Example}}{2}}
\newlabel{Sorted Array}{{1}{2}}
\@writefile{toc}{\contentsline {section}{\numberline {2}Algorithm and Implementation}{2}}
\@writefile{toc}{\contentsline {subsection}{\numberline {2.1}Building upon the idea}{2}}
\@writefile{lof}{\contentsline {figure}{\numberline {2}{\ignorespaces Binary Search - A working example}}{2}}
\newlabel{Binary Search example}{{2}{2}}
\citation{CLRS2009}
\citation{CLRS2009}
\citation{CLRS2009}
\citation{Meyer2000}
\citation{CLRS2009}
\@writefile{toc}{\contentsline {subsection}{\numberline {2.2}Implementation}{3}}
\@writefile{toc}{\contentsline {section}{\numberline {3}Binary Search vs Linear Search}{3}}
\@writefile{toc}{\contentsline {subsection}{\numberline {3.1}Time Complexity}{3}}
\@writefile{toc}{\contentsline {subsubsection}{\numberline {3.1.1}Linear Search}{3}}
\@writefile{toc}{\contentsline {subsubsection}{\numberline {3.1.2}Binary Search}{3}}
\@writefile{toc}{\contentsline {subsubsection}{\numberline {3.1.3}Comparison}{3}}
\@writefile{toc}{\contentsline {subsection}{\numberline {3.2}Space Complexity}{3}}
\bibdata{Master}
\bibcite{CLRS2009}{1}
\bibcite{Meyer2000}{2}
\@writefile{lot}{\contentsline {table}{\numberline {1}{\ignorespaces Time Complexity}}{4}}
\newlabel{tab:table1}{{1}{4}}
\@writefile{lot}{\contentsline {table}{\numberline {2}{\ignorespaces Space Complexity}}{4}}
\newlabel{tab:table1}{{2}{4}}
\@writefile{lot}{\contentsline {table}{\numberline {3}{\ignorespaces Optimal Use}}{4}}
\newlabel{tab:table1}{{3}{4}}
\@writefile{toc}{\contentsline {subsection}{\numberline {3.3}Camparison Tables}{4}}
\@writefile{toc}{\contentsline {section}{\numberline {4}Conclusion}{4}}
