\begin{thebibliography}{1}

\bibitem{CLRS2009}
Thomas~H. Cormen, Clifford Stein, Ronald~L. Rivest, and Charles~E. Leiserson.
\newblock {\em Introduction to Algorithms, 3rd Edition}.
\newblock The MIT Press; 3rd edition (July 31, 2009), MIT, USA, 2009.

\bibitem{Meyer2000}
Bernd Meyer.
\newblock A constraint-based framework for diagrammatic reasoning.
\newblock {\em Applied Artificial Intelligence}, 14:327--344, 2000.

\end{thebibliography}
