\contentsline {section}{\numberline {1}Introduction}{2}
\contentsline {section}{\numberline {2}Causes of the Rebellion}{2}
\contentsline {subsection}{\numberline {2.1}Tallow and lard-greased cartridges}{3}
\contentsline {subsection}{\numberline {2.2}Civilian disquiet}{3}
\contentsline {subsection}{\numberline {2.3}The Bengal Army}{3}
\contentsline {section}{\numberline {3}The Revolt}{4}
\contentsline {section}{\numberline {4}Aftermath}{5}
