\relax 
\bibstyle{plain}
\citation{BOOK1}
\citation{BOOK2}
\@writefile{toc}{\contentsline {section}{\numberline {1}Introduction}{2}}
\@writefile{lof}{\contentsline {figure}{\numberline {1}{\ignorespaces Area in pink denotes the Company territory in 1837(left) and 1857(right)}}{2}}
\newlabel{Sorted Array}{{1}{2}}
\@writefile{toc}{\contentsline {section}{\numberline {2}Causes of the Rebellion}{2}}
\citation{BOOK1}
\citation{BOOK3}
\citation{BOOK3}
\citation{BOOK1}
\citation{BOOK1}
\@writefile{toc}{\contentsline {subsection}{\numberline {2.1}Tallow and lard-greased cartridges}{3}}
\@writefile{toc}{\contentsline {subsection}{\numberline {2.2}Civilian disquiet}{3}}
\@writefile{toc}{\contentsline {subsection}{\numberline {2.3}The Bengal Army}{3}}
\citation{BOOK2}
\citation{BOOK4}
\citation{BOOK2}
\@writefile{toc}{\contentsline {section}{\numberline {3}The Revolt}{4}}
\@writefile{lof}{\contentsline {figure}{\numberline {2}{\ignorespaces The major centers of mutiny}}{4}}
\newlabel{Sorted Array}{{2}{4}}
\citation{BOOK1}
\citation{BOOK2}
\citation{BOOK1}
\citation{BOOK3}
\citation{BOOK3}
\@writefile{lof}{\contentsline {figure}{\numberline {3}{\ignorespaces Seige of Delhi(left) ; Lucknow in Ruins(right)}}{5}}
\newlabel{Sorted Array}{{3}{5}}
\@writefile{lof}{\contentsline {figure}{\numberline {4}{\ignorespaces Battle in Kolapur(left) ; Execution of mutineers in Peshawar(right)}}{5}}
\newlabel{Sorted Array}{{4}{5}}
\@writefile{toc}{\contentsline {section}{\numberline {4}Aftermath}{5}}
\citation{BOOK2}
\citation{BOOK4}
\citation{BOOK1}
\bibdata{Master}
\bibcite{BOOK2}{1}
\@writefile{lof}{\contentsline {figure}{\numberline {5}{\ignorespaces Surrender of Bahadur Shah Zafar}}{6}}
\newlabel{Sorted Array}{{5}{6}}
\@writefile{lof}{\contentsline {figure}{\numberline {6}{\ignorespaces Punishment for mutiny}}{6}}
\newlabel{Sorted Array}{{6}{6}}
\bibcite{BOOK3}{2}
\bibcite{BOOK4}{3}
\bibcite{BOOK1}{4}
